data/raw/eventos/e4/WaveData46628.csv

#timebase=1345294336(ps)
,#voltbase=20000(mv/100)
#size=4000
-4.000E-01,0.002
-3.998E-01,0.002
-3.996E-01,0.003
-3.994E-01,0.003
-3.992E-01,0.002
-3.990E-01,0.002
-3.988E-01,0.004
-3.986E-01,0.003
-3.984E-01,0.002
-3.982E-01,0.002
-3.980E-01,0.000
-3.978E-01,0.000
-3.976E-01,0.002
-3.974E-01,0.002
-3.972E-01,0.001
-3.970E-01,0.001
-3.968E-01,0.000
-3.966E-01,0.001
-3.964E-01,0.003
-3.962E-01,0.002
-3.960E-01,0.000
-3.958E-01,0.001
-3.956E-01,0.002
-3.954E-01,0.001
-3.952E-01,0.001
-3.950E-01,0.001
-3.948E-01,0.002
-3.946E-01,0.001
-3.944E-01,0.002
-3.942E-01,0.001
-3.940E-01,0.002
-3.938E-01,0.001
-3.936E-01,0.000
-3.934E-01,0.001
-3.932E-01,0.001
-3.930E-01,0.001
-3.928E-01,0.002
-3.926E-01,0.002
-3.924E-01,0.002
-3.922E-01,0.001
-3.920E-01,0.002
-3.918E-01,0.002
-3.916E-01,0.001
-3.914E-01,0.002
-3.912E-01,0.000
-3.910E-01,-0.001
-3.908E-01,0.000
-3.906E-01,0.001
-3.904E-01,0.001
-3.902E-01,0.001
-3.900E-01,0.002
-3.898E-01,0.002
-3.896E-01,0.001
-3.894E-01,0.000
-3.892E-01,0.000
-3.890E-01,0.000
-3.888E-01,0.000
-3.886E-01,0.000
-3.884E-01,0.001
-3.882E-01,0.000
-3.880E-01,0.000
-3.878E-01,-0.001
-3.876E-01,-0.002
-3.874E-01,-0.001
-3.872E-01,0.000
-3.870E-01,-0.001
-3.868E-01,0.000
-3.866E-01,0.002
-3.864E-01,-0.001
-3.862E-01,-0.001
-3.860E-01,0.001
-3.858E-01,0.002
-3.856E-01,0.003
-3.854E-01,0.002
-3.852E-01,0.002
-3.850E-01,0.002
-3.848E-01,0.001
-3.846E-01,0.002
-3.844E-01,0.001
-3.842E-01,0.001
-3.840E-01,0.002
-3.838E-01,0.002
-3.836E-01,0.004
-3.834E-01,-0.001
-3.832E-01,0.002
-3.830E-01,0.000
-3.828E-01,0.000
-3.826E-01,-0.002
-3.824E-01,0.000
-3.822E-01,0.001
-3.820E-01,0.000
-3.818E-01,0.002
-3.816E-01,-0.002
-3.814E-01,0.000
-3.812E-01,-0.001
-3.810E-01,0.001
-3.808E-01,0.002
-3.806E-01,0.000
-3.804E-01,0.001
-3.802E-01,0.001
-3.800E-01,0.002
-3.798E-01,0.002
-3.796E-01,0.000
-3.794E-01,0.000
-3.792E-01,0.001
-3.790E-01,0.001
-3.788E-01,0.002
-3.786E-01,0.002
-3.784E-01,0.002
-3.782E-01,0.001
-3.780E-01,0.002
-3.778E-01,0.003
-3.776E-01,0.002
-3.774E-01,0.002
-3.772E-01,0.002
-3.770E-01,0.002
-3.768E-01,0.001
-3.766E-01,0.000
-3.764E-01,0.000
-3.762E-01,0.002
-3.760E-01,0.002
-3.758E-01,0.002
-3.756E-01,0.003
-3.754E-01,0.001
-3.752E-01,0.002
-3.750E-01,0.001
-3.748E-01,0.000
-3.746E-01,0.000
-3.744E-01,0.000
-3.742E-01,0.000
-3.740E-01,0.000
-3.738E-01,0.000
-3.736E-01,0.001
-3.734E-01,0.000
-3.732E-01,0.000
-3.730E-01,0.001
-3.728E-01,-0.001
-3.726E-01,0.000
-3.724E-01,0.000
-3.722E-01,0.000
-3.720E-01,-0.001
-3.718E-01,0.000
-3.716E-01,0.002
-3.714E-01,0.001
-3.712E-01,0.002
-3.710E-01,0.003
-3.708E-01,0.005
-3.706E-01,0.003
-3.704E-01,0.002
-3.702E-01,0.003
-3.700E-01,0.002
-3.698E-01,0.002
-3.696E-01,0.003
-3.694E-01,0.002
-3.692E-01,0.002
-3.690E-01,0.002
-3.688E-01,0.002
-3.686E-01,0.002
-3.684E-01,0.001
-3.682E-01,0.000
-3.680E-01,0.001
-3.678E-01,0.001
-3.676E-01,0.002
-3.674E-01,0.001
-3.672E-01,0.002
-3.670E-01,0.003
-3.668E-01,0.002
-3.666E-01,0.002
-3.664E-01,0.002
-3.662E-01,0.002
-3.660E-01,0.001
-3.658E-01,-0.001
-3.656E-01,0.001
-3.654E-01,0.002
-3.652E-01,0.002
-3.650E-01,0.003
-3.648E-01,0.004
-3.646E-01,0.002
-3.644E-01,0.003
-3.642E-01,0.002
-3.640E-01,0.003
-3.638E-01,0.004
-3.636E-01,0.003
-3.634E-01,0.002
-3.632E-01,0.002
-3.630E-01,0.000
-3.628E-01,0.000
-3.626E-01,-0.001
-3.624E-01,0.001
-3.622E-01,-0.001
-3.620E-01,-0.001
-3.618E-01,0.000
-3.616E-01,0.000
-3.614E-01,0.002
-3.612E-01,0.001
-3.610E-01,-0.001
-3.608E-01,0.001
-3.606E-01,0.000
-3.604E-01,0.000
-3.602E-01,0.000
-3.600E-01,0.002
-3.598E-01,0.002
-3.596E-01,0.000
-3.594E-01,0.000
-3.592E-01,0.000
-3.590E-01,0.001
-3.588E-01,0.002
-3.586E-01,0.002
-3.584E-01,0.001
-3.582E-01,0.002
-3.580E-01,0.001
-3.578E-01,0.002
-3.576E-01,0.002
-3.574E-01,0.002
-3.572E-01,0.002
-3.570E-01,0.001
-3.568E-01,0.002
-3.566E-01,0.002
-3.564E-01,0.002
-3.562E-01,0.001
-3.560E-01,0.002
-3.558E-01,0.002
-3.556E-01,0.003
-3.554E-01,0.002
-3.552E-01,0.001
-3.550E-01,0.004
-3.548E-01,0.003
-3.546E-01,0.004
-3.544E-01,0.002
-3.542E-01,0.002
-3.540E-01,0.003
-3.538E-01,0.002
-3.536E-01,0.002
-3.534E-01,0.003
-3.532E-01,0.002
-3.530E-01,0.004
-3.528E-01,0.002
-3.526E-01,0.002
-3.524E-01,0.002
-3.522E-01,0.001
-3.520E-01,0.002
-3.518E-01,0.002
-3.516E-01,0.002
-3.514E-01,0.002
-3.512E-01,0.002
-3.510E-01,0.002
-3.508E-01,0.002
-3.506E-01,0.002
-3.504E-01,0.002
-3.502E-01,0.002
-3.500E-01,-0.001
-3.498E-01,0.000
-3.496E-01,0.001
-3.494E-01,0.000
-3.492E-01,-0.001
-3.490E-01,0.001
-3.488E-01,0.000
-3.486E-01,-0.001
-3.484E-01,0.002
-3.482E-01,0.002
-3.480E-01,0.001
-3.478E-01,0.001
-3.476E-01,0.001
-3.474E-01,0.003
-3.472E-01,0.003
-3.470E-01,0.002
-3.468E-01,0.004
-3.466E-01,0.003
-3.464E-01,0.002
-3.462E-01,0.001
-3.460E-01,0.001
-3.458E-01,0.002
-3.456E-01,0.001
-3.454E-01,0.001
-3.452E-01,0.000
-3.450E-01,0.000
-3.448E-01,0.000
-3.446E-01,0.000
-3.444E-01,0.002
-3.442E-01,0.002
-3.440E-01,-0.001
-3.438E-01,0.002
-3.436E-01,0.002
-3.434E-01,0.000
-3.432E-01,0.001
-3.430E-01,0.003
-3.428E-01,0.002
-3.426E-01,0.002
-3.424E-01,0.002
-3.422E-01,0.002
-3.420E-01,0.002
-3.418E-01,0.001
-3.416E-01,0.001
-3.414E-01,0.001
-3.412E-01,0.002
-3.410E-01,0.002
-3.408E-01,0.002
-3.406E-01,0.002
-3.404E-01,0.000
-3.402E-01,-0.001
-3.400E-01,0.001
-3.398E-01,0.000
-3.396E-01,0.002
-3.394E-01,0.002
-3.392E-01,0.002
-3.390E-01,0.001
-3.388E-01,0.000
-3.386E-01,-0.001
-3.384E-01,-0.002
-3.382E-01,-0.001
-3.380E-01,-0.001
-3.378E-01,0.000
-3.376E-01,0.000
-3.374E-01,0.000
-3.372E-01,-0.001
-3.370E-01,0.000
-3.368E-01,-0.001
-3.366E-01,-0.001
-3.364E-01,0.000
-3.362E-01,-0.001
-3.360E-01,-0.002
-3.358E-01,-0.001
-3.356E-01,-0.002
-3.354E-01,-0.002
-3.352E-01,0.000
-3.350E-01,-0.001
-3.348E-01,0.000
-3.346E-01,0.000
-3.344E-01,-0.001
-3.342E-01,0.000
-3.340E-01,-0.001
-3.338E-01,-0.002
-3.336E-01,-0.002
-3.334E-01,-0.002
-3.332E-01,-0.002
-3.330E-01,0.000
-3.328E-01,0.000
-3.326E-01,-0.001
-3.324E-01,0.000
-3.322E-01,0.001
-3.320E-01,-0.001
-3.318E-01,-0.001
-3.316E-01,-0.001
-3.314E-01,-0.001
-3.312E-01,-0.001
-3.310E-01,-0.001
-3.308E-01,-0.002
-3.306E-01,-0.001
-3.304E-01,-0.001
-3.302E-01,-0.001
-3.300E-01,0.000
-3.298E-01,-0.002
-3.296E-01,-0.002
-3.294E-01,-0.001
-3.292E-01,-0.001
-3.290E-01,0.001
-3.288E-01,0.000
-3.286E-01,0.001
-3.284E-01,0.001
-3.282E-01,0.002
-3.280E-01,0.000
-3.278E-01,0.002
-3.276E-01,0.002
-3.274E-01,0.001
-3.272E-01,0.000
-3.270E-01,0.002
-3.268E-01,0.001
-3.266E-01,0.001
-3.264E-01,0.002
-3.262E-01,0.003
-3.260E-01,0.002
-3.258E-01,0.002
-3.256E-01,0.003
-3.254E-01,0.001
-3.252E-01,0.002
-3.250E-01,0.003
-3.248E-01,0.003
-3.246E-01,0.004
-3.244E-01,0.001
-3.242E-01,0.002
-3.240E-01,0.002
-3.238E-01,0.002
-3.236E-01,0.003
-3.234E-01,0.002
-3.232E-01,0.002
-3.230E-01,0.001
-3.228E-01,0.001
-3.226E-01,0.000
-3.224E-01,0.001
-3.222E-01,0.001
-3.220E-01,0.002
-3.218E-01,0.002
-3.216E-01,0.002
-3.214E-01,0.004
-3.212E-01,0.003
-3.210E-01,0.002
-3.208E-01,0.003
-3.206E-01,0.004
-3.204E-01,0.001
-3.202E-01,0.002
-3.200E-01,0.001
-3.198E-01,0.002
-3.196E-01,0.003
-3.194E-01,0.004
-3.192E-01,0.002
-3.190E-01,0.003
-3.188E-01,0.002
-3.186E-01,0.002
-3.184E-01,0.002
-3.182E-01,0.002
-3.180E-01,0.000
-3.178E-01,0.000
-3.176E-01,-0.001
-3.174E-01,0.000
-3.172E-01,0.001
-3.170E-01,0.002
-3.168E-01,0.001
-3.166E-01,0.001
-3.164E-01,0.002
-3.162E-01,0.003
-3.160E-01,0.002
-3.158E-01,0.003
-3.156E-01,0.003
-3.154E-01,0.001
-3.152E-01,0.002
-3.150E-01,0.002
-3.148E-01,0.003
-3.146E-01,0.002
-3.144E-01,0.001
-3.142E-01,0.000
-3.140E-01,-0.002
-3.138E-01,0.000
-3.136E-01,0.001
-3.134E-01,0.001
-3.132E-01,0.002
-3.130E-01,0.001
-3.128E-01,0.001
-3.126E-01,0.002
-3.124E-01,0.001
-3.122E-01,0.001
-3.120E-01,0.001
-3.118E-01,0.002
-3.116E-01,0.002
-3.114E-01,0.002
-3.112E-01,0.002
-3.110E-01,0.002
-3.108E-01,0.001
-3.106E-01,0.002
-3.104E-01,0.002
-3.102E-01,0.002
-3.100E-01,0.002
-3.098E-01,0.003
-3.096E-01,0.002
-3.094E-01,0.003
-3.092E-01,0.005
-3.090E-01,0.003
-3.088E-01,0.002
-3.086E-01,0.002
-3.084E-01,0.002
-3.082E-01,0.002
-3.080E-01,0.001
-3.078E-01,0.002
-3.076E-01,0.002
-3.074E-01,0.001
-3.072E-01,0.001
-3.070E-01,0.001
-3.068E-01,0.000
-3.066E-01,-0.001
-3.064E-01,0.000
-3.062E-01,0.000
-3.060E-01,0.000
-3.058E-01,-0.001
-3.056E-01,-0.001
-3.054E-01,-0.001
-3.052E-01,0.000
-3.050E-01,0.002
-3.048E-01,0.002
-3.046E-01,0.001
-3.044E-01,0.000
-3.042E-01,0.001
-3.040E-01,0.000
-3.038E-01,-0.001
-3.036E-01,0.000
-3.034E-01,0.001
-3.032E-01,0.000
-3.030E-01,0.001
-3.028E-01,0.001
-3.026E-01,0.002
-3.024E-01,0.002
-3.022E-01,0.002
-3.020E-01,0.001
-3.018E-01,0.001
-3.016E-01,0.002
-3.014E-01,0.002
-3.012E-01,0.002
-3.010E-01,0.003
-3.008E-01,0.004
-3.006E-01,0.004
-3.004E-01,0.002
-3.002E-01,0.003
-3.000E-01,0.002
-2.998E-01,0.001
-2.996E-01,0.000
-2.994E-01,0.001
-2.992E-01,0.002
-2.990E-01,0.000
-2.988E-01,0.001
-2.986E-01,0.001
-2.984E-01,0.001
-2.982E-01,0.001
-2.980E-01,0.001
-2.978E-01,0.001
-2.976E-01,0.002
-2.974E-01,0.001
-2.972E-01,0.001
-2.970E-01,0.002
-2.968E-01,0.002
-2.966E-01,0.002
-2.964E-01,0.003
-2.962E-01,0.002
-2.960E-01,0.002
-2.958E-01,0.004
-2.956E-01,0.002
-2.954E-01,0.002
-2.952E-01,0.002
-2.950E-01,0.000
-2.948E-01,0.000
-2.946E-01,-0.001
-2.944E-01,-0.001
-2.942E-01,-0.002
-2.940E-01,0.001
-2.938E-01,0.002
-2.936E-01,-0.001
-2.934E-01,-0.001
-2.932E-01,0.001
-2.930E-01,-0.001
-2.928E-01,0.000
-2.926E-01,0.000
-2.924E-01,0.002
-2.922E-01,0.002
-2.920E-01,0.001
-2.918E-01,0.002
-2.916E-01,0.003
-2.914E-01,0.002
-2.912E-01,0.002
-2.910E-01,0.002
-2.908E-01,0.003
-2.906E-01,0.002
-2.904E-01,0.002
-2.902E-01,0.001
-2.900E-01,0.001
-2.898E-01,0.001
-2.896E-01,0.000
-2.894E-01,0.001
-2.892E-01,0.000
-2.890E-01,0.000
-2.888E-01,0.000
-2.886E-01,0.002
-2.884E-01,0.002
-2.882E-01,0.001
-2.880E-01,0.002
-2.878E-01,0.002
-2.876E-01,0.002
-2.874E-01,0.001
-2.872E-01,0.001
-2.870E-01,0.000
-2.868E-01,-0.001
-2.866E-01,0.000
-2.864E-01,0.001
-2.862E-01,0.000
-2.860E-01,0.000
-2.858E-01,0.000
-2.856E-01,-0.001
-2.854E-01,-0.001
-2.852E-01,-0.001
-2.850E-01,0.001
-2.848E-01,0.002
-2.846E-01,0.002
-2.844E-01,0.001
-2.842E-01,0.000
-2.840E-01,-0.001
-2.838E-01,0.001
-2.836E-01,0.002
-2.834E-01,0.002
-2.832E-01,0.002
-2.830E-01,0.002
-2.828E-01,0.001
-2.826E-01,0.002
-2.824E-01,0.001
-2.822E-01,0.001
-2.820E-01,0.002
-2.818E-01,0.002
-2.816E-01,0.002
-2.814E-01,0.003
-2.812E-01,0.004
-2.810E-01,0.003
-2.808E-01,0.004
-2.806E-01,0.002
-2.804E-01,0.001
-2.802E-01,0.001
-2.800E-01,-0.002
-2.798E-01,0.000
-2.796E-01,0.000
-2.794E-01,0.001
-2.792E-01,0.001
-2.790E-01,0.000
-2.788E-01,0.001
-2.786E-01,0.000
-2.784E-01,0.001
-2.782E-01,0.002
-2.780E-01,0.001
-2.778E-01,0.001
-2.776E-01,0.000
-2.774E-01,0.000
-2.772E-01,0.001
-2.770E-01,-0.001
-2.768E-01,0.000
-2.766E-01,0.001
-2.764E-01,0.000
-2.762E-01,-0.001
-2.760E-01,0.001
-2.758E-01,-0.001
-2.756E-01,-0.001
-2.754E-01,0.000
-2.752E-01,-0.001
-2.750E-01,0.000
-2.748E-01,0.001
-2.746E-01,0.001
-2.744E-01,0.001
-2.742E-01,0.001
-2.740E-01,0.002
-2.738E-01,0.000
-2.736E-01,0.000
-2.734E-01,-0.002
-2.732E-01,-0.002
-2.730E-01,-0.002
-2.728E-01,-0.002
-2.726E-01,-0.001
-2.724E-01,-0.001
-2.722E-01,-0.002
-2.720E-01,0.001
-2.718E-01,0.000
-2.716E-01,0.002
-2.714E-01,-0.001
-2.712E-01,0.001
-2.710E-01,0.000
-2.708E-01,0.000
-2.706E-01,-0.001
-2.704E-01,0.000
-2.702E-01,0.001
-2.700E-01,0.001
-2.698E-01,0.002
-2.696E-01,0.000
-2.694E-01,0.000
-2.692E-01,0.004
-2.690E-01,0.004
-2.688E-01,0.004
-2.686E-01,0.004
-2.684E-01,0.002
-2.682E-01,0.000
-2.680E-01,0.001
-2.678E-01,0.000
-2.676E-01,0.001
-2.674E-01,0.000
-2.672E-01,0.000
-2.670E-01,0.001
-2.668E-01,0.000
-2.666E-01,0.000
-2.664E-01,0.002
-2.662E-01,0.002
-2.660E-01,0.002
-2.658E-01,0.000
-2.656E-01,0.002
-2.654E-01,0.001
-2.652E-01,0.002
-2.650E-01,0.001
-2.648E-01,0.000
-2.646E-01,0.002
-2.644E-01,0.002
-2.642E-01,0.003
-2.640E-01,0.000
-2.638E-01,0.002
-2.636E-01,0.002
-2.634E-01,0.001
-2.632E-01,0.002
-2.630E-01,0.002
-2.628E-01,0.002
-2.626E-01,0.001
-2.624E-01,-0.001
-2.622E-01,-0.001
-2.620E-01,-0.001
-2.618E-01,-0.001
-2.616E-01,0.001
-2.614E-01,0.002
-2.612E-01,0.001
-2.610E-01,0.001
-2.608E-01,0.002
-2.606E-01,0.002
-2.604E-01,0.003
-2.602E-01,0.002
-2.600E-01,0.001
-2.598E-01,0.002
-2.596E-01,0.001
-2.594E-01,0.003
-2.592E-01,0.002
-2.590E-01,0.003
-2.588E-01,0.002
-2.586E-01,0.003
-2.584E-01,0.002
-2.582E-01,0.003
-2.580E-01,0.004
-2.578E-01,0.003
-2.576E-01,0.003
-2.574E-01,0.003
-2.572E-01,0.002
-2.570E-01,0.002
-2.568E-01,0.000
-2.566E-01,0.000
-2.564E-01,0.001
-2.562E-01,0.000
-2.560E-01,0.001
-2.558E-01,0.001
-2.556E-01,0.001
-2.554E-01,0.001
-2.552E-01,0.000
-2.550E-01,-0.001
-2.548E-01,-0.001
-2.546E-01,0.000
-2.544E-01,-0.001
-2.542E-01,0.000
-2.540E-01,0.001
-2.538E-01,0.000
-2.536E-01,0.001
-2.534E-01,0.001
-2.532E-01,0.001
-2.530E-01,0.001
-2.528E-01,0.002
-2.526E-01,0.003
-2.524E-01,0.002
-2.522E-01,0.002
-2.520E-01,0.002
-2.518E-01,0.002
-2.516E-01,0.002
-2.514E-01,0.000
-2.512E-01,0.001
-2.510E-01,0.000
-2.508E-01,0.000
-2.506E-01,0.000
-2.504E-01,-0.001
-2.502E-01,0.000
-2.500E-01,0.001
-2.498E-01,0.002
-2.496E-01,0.002
-2.494E-01,0.000
-2.492E-01,0.002
-2.490E-01,0.002
-2.488E-01,0.002
-2.486E-01,0.001
-2.484E-01,0.001
-2.482E-01,0.001
-2.480E-01,0.002
-2.478E-01,0.001
-2.476E-01,0.000
-2.474E-01,0.000
-2.472E-01,0.000
-2.470E-01,0.001
-2.468E-01,0.001
-2.466E-01,0.000
-2.464E-01,0.000
-2.462E-01,-0.001
-2.460E-01,0.000
-2.458E-01,-0.002
-2.456E-01,0.000
-2.454E-01,0.000
-2.452E-01,0.000
-2.450E-01,0.000
-2.448E-01,0.001
-2.446E-01,0.000
-2.444E-01,0.001
-2.442E-01,0.002
-2.440E-01,0.000
-2.438E-01,0.001
-2.436E-01,0.001
-2.434E-01,0.002
-2.432E-01,0.002
-2.430E-01,0.002
-2.428E-01,0.002
-2.426E-01,0.001
-2.424E-01,0.000
-2.422E-01,-0.001
-2.420E-01,-0.001
-2.418E-01,0.000
-2.416E-01,0.000
-2.414E-01,0.000
-2.412E-01,0.000
-2.410E-01,0.001
-2.408E-01,0.002
-2.406E-01,0.001
-2.404E-01,0.002
-2.402E-01,0.002
-2.400E-01,0.002
-2.398E-01,0.002
-2.396E-01,0.001
-2.394E-01,0.001
-2.392E-01,0.002
-2.390E-01,0.001
-2.388E-01,0.001
-2.386E-01,0.002
-2.384E-01,0.002
-2.382E-01,0.001
-2.380E-01,0.002
-2.378E-01,0.002
-2.376E-01,0.004
-2.374E-01,0.002
-2.372E-01,0.002
-2.370E-01,0.002
-2.368E-01,0.001
-2.366E-01,0.002
-2.364E-01,0.001
-2.362E-01,0.001
-2.360E-01,0.000
-2.358E-01,0.001
-2.356E-01,0.002
-2.354E-01,0.002
-2.352E-01,0.001
-2.350E-01,0.000
-2.348E-01,0.002
-2.346E-01,-0.001
-2.344E-01,0.001
-2.342E-01,0.001
-2.340E-01,0.002
-2.338E-01,0.002
-2.336E-01,0.001
-2.334E-01,0.002
-2.332E-01,0.002
-2.330E-01,0.002
-2.328E-01,0.001
-2.326E-01,0.001
-2.324E-01,0.002
-2.322E-01,0.002
-2.320E-01,0.004
-2.318E-01,0.002
-2.316E-01,0.002
-2.314E-01,0.003
-2.312E-01,0.002
-2.310E-01,0.002
-2.308E-01,0.001
-2.306E-01,0.002
-2.304E-01,0.001
-2.302E-01,0.002
-2.300E-01,0.001
-2.298E-01,0.001
-2.296E-01,0.001
-2.294E-01,0.001
-2.292E-01,0.001
-2.290E-01,0.000
-2.288E-01,-0.001
-2.286E-01,0.001
-2.284E-01,0.001
-2.282E-01,0.002
-2.280E-01,0.002
-2.278E-01,0.002
-2.276E-01,-0.001
-2.274E-01,0.000
-2.272E-01,0.001
-2.270E-01,0.001
-2.268E-01,0.001
-2.266E-01,0.001
-2.264E-01,0.002
-2.262E-01,0.002
-2.260E-01,0.002
-2.258E-01,0.002
-2.256E-01,0.001
-2.254E-01,-0.001
-2.252E-01,0.002
-2.250E-01,0.001
-2.248E-01,0.002
-2.246E-01,0.001
-2.244E-01,0.002
-2.242E-01,0.002
-2.240E-01,0.001
-2.238E-01,0.002
-2.236E-01,0.001
-2.234E-01,0.001
-2.232E-01,0.002
-2.230E-01,0.001
-2.228E-01,0.002
-2.226E-01,0.003
-2.224E-01,0.002
-2.222E-01,0.001
-2.220E-01,0.001
-2.218E-01,0.002
-2.216E-01,0.003
-2.214E-01,0.001
-2.212E-01,0.002
-2.210E-01,0.002
-2.208E-01,0.002
-2.206E-01,0.002
-2.204E-01,0.002
-2.202E-01,0.002
-2.200E-01,0.001
-2.198E-01,0.001
-2.196E-01,0.000
-2.194E-01,-0.001
-2.192E-01,-0.002
-2.190E-01,-0.001
-2.188E-01,-0.001
-2.186E-01,-0.002
-2.184E-01,0.000
-2.182E-01,0.000
-2.180E-01,0.000
-2.178E-01,0.001
-2.176E-01,0.001
-2.174E-01,0.002
-2.172E-01,0.002
-2.170E-01,-0.001
-2.168E-01,0.000
-2.166E-01,0.000
-2.164E-01,-0.002
-2.162E-01,0.000
-2.160E-01,0.000
-2.158E-01,-0.001
-2.156E-01,-0.001
-2.154E-01,-0.001
-2.152E-01,0.000
-2.150E-01,0.002
-2.148E-01,0.002
-2.146E-01,0.002
-2.144E-01,0.003
-2.142E-01,0.003
-2.140E-01,0.003
-2.138E-01,0.001
-2.136E-01,0.002
-2.134E-01,0.002
-2.132E-01,0.001
-2.130E-01,0.000
-2.128E-01,0.000
-2.126E-01,0.001
-2.124E-01,0.000
-2.122E-01,0.001
-2.120E-01,0.002
-2.118E-01,0.002
-2.116E-01,0.001
-2.114E-01,0.002
-2.112E-01,-0.001
-2.110E-01,0.000
-2.108E-01,0.001
-2.106E-01,0.001
-2.104E-01,0.002
-2.102E-01,0.001
-2.100E-01,0.002
-2.098E-01,0.001
-2.096E-01,0.002
-2.094E-01,0.001
-2.092E-01,0.002
-2.090E-01,0.003
-2.088E-01,0.001
-2.086E-01,0.002
-2.084E-01,0.001
-2.082E-01,0.002
-2.080E-01,0.003
-2.078E-01,0.003
-2.076E-01,0.002
-2.074E-01,0.002
-2.072E-01,0.001
-2.070E-01,0.002
-2.068E-01,0.001
-2.066E-01,0.001
-2.064E-01,0.000
-2.062E-01,0.000
-2.060E-01,0.002
-2.058E-01,0.002
-2.056E-01,0.001
-2.054E-01,0.001
-2.052E-01,0.002
-2.050E-01,0.001
-2.048E-01,0.000
-2.046E-01,0.001
-2.044E-01,0.002
-2.042E-01,0.002
-2.040E-01,-0.001
-2.038E-01,0.001
-2.036E-01,0.000
-2.034E-01,0.000
-2.032E-01,0.001
-2.030E-01,0.002
-2.028E-01,0.001
-2.026E-01,0.002
-2.024E-01,-0.001
-2.022E-01,-0.001
-2.020E-01,0.000
-2.018E-01,0.001
-2.016E-01,0.002
-2.014E-01,0.002
-2.012E-01,0.001
-2.010E-01,0.000
-2.008E-01,-0.001
-2.006E-01,0.000
-2.004E-01,-0.001
-2.002E-01,0.000
-2.000E-01,-0.001
-1.998E-01,0.000
-1.996E-01,0.000
-1.994E-01,-0.001
-1.992E-01,-0.001
-1.990E-01,-0.001
-1.988E-01,-0.001
-1.986E-01,-0.001
-1.984E-01,-0.001
-1.982E-01,0.000
-1.980E-01,-0.001
-1.978E-01,-0.001
-1.976E-01,0.001
-1.974E-01,0.001
-1.972E-01,-0.001
-1.970E-01,0.000
-1.968E-01,-0.001
-1.966E-01,0.000
-1.964E-01,0.001
-1.962E-01,0.001
-1.960E-01,0.000
-1.958E-01,0.001
-1.956E-01,0.000
-1.954E-01,0.001
-1.952E-01,-0.001
-1.950E-01,-0.001
-1.948E-01,0.002
-1.946E-01,0.002
-1.944E-01,0.000
-1.942E-01,0.001
-1.940E-01,0.002
-1.938E-01,0.001
-1.936E-01,0.001
-1.934E-01,-0.001
-1.932E-01,-0.001
-1.930E-01,0.001
-1.928E-01,0.001
-1.926E-01,0.002
-1.924E-01,0.002
-1.922E-01,0.001
-1.920E-01,0.002
-1.918E-01,0.002
-1.916E-01,0.002
-1.914E-01,0.001
-1.912E-01,0.002
-1.910E-01,0.002
-1.908E-01,0.002
-1.906E-01,0.001
-1.904E-01,0.002
-1.902E-01,0.001
-1.900E-01,0.002
-1.898E-01,0.002
-1.896E-01,0.002
-1.894E-01,0.002
-1.892E-01,0.002
-1.890E-01,0.002
-1.888E-01,0.003
-1.886E-01,0.002
-1.884E-01,0.001
-1.882E-01,0.001
-1.880E-01,0.002
-1.878E-01,0.001
-1.876E-01,0.002
-1.874E-01,0.002
-1.872E-01,0.001
-1.870E-01,0.000
-1.868E-01,0.002
-1.866E-01,0.001
-1.864E-01,0.000
-1.862E-01,0.001
-1.860E-01,0.002
-1.858E-01,0.001
-1.856E-01,0.000
-1.854E-01,0.001
-1.852E-01,0.000
-1.850E-01,0.002
-1.848E-01,0.001
-1.846E-01,0.002
-1.844E-01,0.002
-1.842E-01,0.002
-1.840E-01,0.000
-1.838E-01,0.001
-1.836E-01,0.000
-1.834E-01,-0.001
-1.832E-01,0.000
-1.830E-01,0.000
-1.828E-01,0.001
-1.826E-01,0.002
-1.824E-01,0.001
-1.822E-01,-0.001
-1.820E-01,0.000
-1.818E-01,0.002
-1.816E-01,0.002
-1.814E-01,0.003
-1.812E-01,0.002
-1.810E-01,0.000
-1.808E-01,0.002
-1.806E-01,-0.001
-1.804E-01,0.002
-1.802E-01,0.001
-1.800E-01,0.002
-1.798E-01,0.002
-1.796E-01,0.001
-1.794E-01,0.002
-1.792E-01,0.001
-1.790E-01,0.001
-1.788E-01,0.001
-1.786E-01,0.002
-1.784E-01,0.002
-1.782E-01,0.002
-1.780E-01,0.003
-1.778E-01,0.004
-1.776E-01,0.002
-1.774E-01,0.003
-1.772E-01,0.004
-1.770E-01,0.002
-1.768E-01,0.002
-1.766E-01,0.002
-1.764E-01,0.002
-1.762E-01,0.002
-1.760E-01,0.002
-1.758E-01,0.002
-1.756E-01,0.000
-1.754E-01,0.001
-1.752E-01,0.000
-1.750E-01,0.000
-1.748E-01,0.001
-1.746E-01,0.001
-1.744E-01,0.000
-1.742E-01,0.001
-1.740E-01,0.001
-1.738E-01,0.001
-1.736E-01,0.001
-1.734E-01,-0.001
-1.732E-01,-0.001
-1.730E-01,0.000
-1.728E-01,0.000
-1.726E-01,0.001
-1.724E-01,0.002
-1.722E-01,0.002
-1.720E-01,0.002
-1.718E-01,0.002
-1.716E-01,0.002
-1.714E-01,0.002
-1.712E-01,0.002
-1.710E-01,0.001
-1.708E-01,0.000
-1.706E-01,0.001
-1.704E-01,0.002
-1.702E-01,0.001
-1.700E-01,0.000
-1.698E-01,0.000
-1.696E-01,-0.001
-1.694E-01,0.001
-1.692E-01,0.001
-1.690E-01,0.000
-1.688E-01,-0.001
-1.686E-01,0.001
-1.684E-01,0.000
-1.682E-01,0.000
-1.680E-01,0.001
-1.678E-01,0.003
-1.676E-01,0.002
-1.674E-01,0.002
